<?xml version="1.0" standalone="no"?>
<!DOCTYPE svg PUBLIC "-//W3C//DTD SVG 20010904//EN"
 "http://www.w3.org/TR/2001/REC-SVG-20010904/DTD/svg10.dtd">
<svg version="1.0" xmlns="http://www.w3.org/2000/svg"
 width="283.000000pt" height="243.000000pt" viewBox="0 0 283.000000 243.000000"
 preserveAspectRatio="xMidYMid meet">

<g transform="translate(0.000000,243.000000) scale(0.100000,-0.100000)"
fill="#7F7F7F" stroke="none">
<path d="M1272 1870 c-118 -31 -206 -83 -303 -180 -146 -145 -206 -302 -196
-510 9 -183 68 -314 201 -445 264 -261 678 -261 942 0 133 131 192 262 201
445 6 132 -12 222 -68 338 -54 112 -178 239 -286 295 -147 76 -334 98 -491 57z
m322 -70 c112 -28 190 -73 276 -160 87 -86 132 -164 160 -276 101 -395 -214
-776 -621 -751 -439 27 -703 500 -497 890 43 81 164 202 245 245 133 70 293
89 437 52z"/>
<path d="M1334 1489 c-103 -39 -184 -157 -184 -268 0 -87 26 -148 89 -212 85
-85 182 -108 301 -73 71 21 159 107 183 178 82 242 -151 467 -389 375z m201
-68 c22 -10 57 -36 77 -59 81 -90 77 -214 -12 -302 -93 -93 -217 -93 -310 0
-89 88 -93 212 -12 302 46 52 103 78 167 78 28 0 68 -9 90 -19z"/>
</g>
</svg>
