<?xml version="1.0" standalone="no"?>
<!DOCTYPE svg PUBLIC "-//W3C//DTD SVG 20010904//EN"
 "http://www.w3.org/TR/2001/REC-SVG-20010904/DTD/svg10.dtd">
<svg version="1.0" xmlns="http://www.w3.org/2000/svg"
 width="283.000000pt" height="243.000000pt" viewBox="0 0 283.000000 243.000000"
 preserveAspectRatio="xMidYMid meet">

<g transform="translate(0.000000,243.000000) scale(0.100000,-0.100000)"
fill="#7F7F7F" stroke="none">
<path d="M1370 2001 c-69 -21 -122 -66 -156 -131 -25 -47 -25 -162 -1 -207
l18 -33 -188 0 -188 0 -99 -493 c-54 -270 -101 -498 -104 -504 -3 -10 158 -13
783 -13 l787 0 -4 23 c-2 12 -44 239 -94 504 l-89 483 -192 0 c-106 0 -193 2
-193 4 0 2 7 23 15 46 34 95 13 183 -60 255 -67 67 -152 91 -235 66z m136 -80
c102 -46 136 -179 68 -261 l-26 -30 -113 0 c-111 0 -114 1 -134 26 -68 87 -40
212 59 262 54 27 92 28 146 3z m550 -793 l80 -433 -695 -3 c-382 -1 -696 -1
-697 1 -2 2 35 198 83 435 l86 432 531 0 531 0 81 -432z"/>
<path d="M1270 1185 c0 -158 2 -185 15 -185 10 0 15 11 15 35 0 19 9 49 20 67
17 29 20 30 26 12 34 -93 43 -109 62 -112 20 -3 19 1 -13 80 l-33 83 30 53
c26 46 27 52 11 52 -12 0 -30 -22 -53 -65 -19 -36 -38 -65 -42 -65 -5 0 -8 52
-8 115 0 96 -3 115 -15 115 -13 0 -15 -27 -15 -185z"/>
<path d="M1588 1290 c-9 -14 -24 -20 -50 -20 -27 0 -41 -6 -52 -22 -19 -26
-21 -109 -5 -125 9 -9 8 -16 -5 -28 -19 -19 -20 -38 -6 -66 8 -14 7 -25 -5
-41 -21 -31 -19 -45 10 -73 53 -54 165 -20 165 50 0 41 -18 56 -82 66 -57 9
-74 20 -65 43 4 10 19 16 41 16 52 0 80 29 80 81 0 24 -3 57 -8 72 -7 24 -5
29 13 34 11 3 21 12 21 19 0 21 -38 17 -52 -6z m-27 -50 c14 -8 19 -21 19 -53
0 -46 -13 -67 -42 -67 -36 0 -52 78 -21 112 19 21 19 21 44 8z m37 -252 c30
-25 -2 -68 -52 -68 -17 0 -37 5 -44 12 -15 15 -16 50 -2 64 12 12 80 6 98 -8z"/>
</g>
</svg>
